2015-11-24 07:34:30xx0
2015-11-24 07:36:10xx0
2015-11-24 07:37:50xx0
2015-11-24 07:39:30xx0
2015-11-24 07:41:10xx0
2015-11-24 07:42:50xx0
2015-11-24 07:44:30xx0
2015-11-24 07:46:10xx0
2015-11-24 07:47:50xx0
2015-11-24 07:49:30xx0
2015-11-24 07:51:10xx2
2015-11-24 07:52:50xx0
2015-11-24 07:54:30xx0
2015-11-24 07:56:10xx0
2015-11-24 07:57:50xx0
2015-11-24 07:59:30xx0
2015-11-24 08:01:10xx0
2015-11-24 08:02:50xx0
2015-11-24 08:04:30xx0
2015-11-24 08:06:10xx0
2015-11-24 08:07:50xx0
2015-11-24 08:09:30xx0
2015-11-24 08:11:10xx0
2015-11-24 08:12:50xx0
2015-11-24 08:14:30xx0
2015-11-24 08:16:10xx0
2015-11-24 08:17:50xx0
2015-11-24 08:19:30xx0
2015-11-24 08:21:10xx0
2015-11-24 08:22:50xx0
2015-11-24 08:24:30xx0
2015-11-24 08:26:10xx0
2015-11-24 08:27:50xx0
2015-11-24 08:29:30xx0
2015-11-24 08:31:10xx0
2015-11-24 08:32:50xx0
2015-11-24 08:34:30xx0
2015-11-24 08:36:10xx0
2015-11-24 08:37:50xx0
2015-11-24 08:39:30xx0
2015-11-24 08:41:10xx0
2015-11-24 08:42:50xx0
2015-11-24 08:44:30xx0
2015-11-24 08:46:10xx0
2015-11-24 08:47:50xx0
2015-11-24 08:49:30xx0
2015-11-24 08:51:10xx0
2015-11-24 08:52:50xx0
2015-11-24 08:54:30xx0
2015-11-24 08:56:10xx0
2015-11-24 08:57:50xx0
2015-11-24 08:59:30xx0
2015-11-24 09:01:10xx0
2015-11-24 09:02:50xx0
2015-11-24 09:04:30xx0
2015-11-24 09:06:10xx0
2015-11-24 09:07:50xx0
2015-11-24 09:09:30xx0
2015-11-24 09:11:10xx0
2015-11-24 09:12:50xx0
2015-11-24 09:14:30xx0
2015-11-24 09:16:10xx0
2015-11-24 09:17:50xx0
2015-11-24 09:19:30xx0
2015-11-24 09:21:10xx0
2015-11-24 09:22:50xx0
2015-11-24 09:24:30xx0
2015-11-24 09:26:10xx0
2015-11-24 09:27:50xx0
2015-11-24 09:29:30xx0
2015-11-24 09:31:10xx0
2015-11-24 09:32:50xx0
2015-11-24 09:35:06xx0
2015-11-24 09:36:46xx2
2015-11-24 09:38:26xx0
2015-11-24 09:40:06xx0
2015-11-24 09:41:46xx0
2015-11-24 09:43:26xx0
2015-11-24 09:45:06xx0
2015-11-24 09:46:46xx0
2015-11-24 09:48:26xx0
2015-11-24 09:50:06xx0
2015-11-24 09:51:46xx0
2015-11-24 09:53:26xx0
2015-11-24 09:55:06xx0
2015-11-24 09:56:46xx0
2015-11-24 09:58:26xx0
2015-11-24 10:00:06xx0
2015-11-24 10:01:46xx0
2015-11-24 10:03:26xx0
2015-11-24 10:05:06xx0
2015-11-24 10:06:46xx0
2015-11-24 10:08:26xx0
2015-11-24 10:10:06xx0
2015-11-24 10:11:46xx0
2015-11-24 10:13:26xx0
2015-11-24 10:15:06xx0
2015-11-24 10:16:46xx0
2015-11-24 10:18:26xx0
2015-11-24 10:20:06xx0
2015-11-24 10:21:46xx0
2015-11-24 10:23:26xx0
2015-11-24 10:25:06xx0
2015-11-24 10:26:46xx0
2015-11-24 10:28:26xx0
2015-11-24 10:30:06xx0
2015-11-24 10:31:46xx0
2015-11-24 10:33:26xx0
2015-11-24 10:35:06xx0
2015-11-24 10:36:46xx0
2015-11-24 10:38:26xx0
2015-11-24 10:40:06xx0
2015-11-24 10:41:46xx0
2015-11-24 10:43:26xx0
2015-11-24 10:45:06xx0
2015-11-24 10:46:46xx0
2015-11-24 10:48:26xx0
2015-11-24 10:50:06xx0
2015-11-24 10:51:46xx0
2015-11-24 10:53:26xx0
2015-11-24 10:55:06xx0
2015-11-24 10:56:46xx0
2015-11-24 10:58:26xx0
2015-11-24 11:00:06xx0
2015-11-24 11:01:46xx0
2015-11-24 11:03:26xx0
2015-11-24 11:05:06xx0
2015-11-24 11:06:46xx0
2015-11-24 11:08:26xx0
2015-11-24 11:10:06xx0
2015-11-24 11:11:46xx0
2015-11-24 11:13:26xx0
2015-11-24 11:15:06xx-1
2015-11-24 11:16:46xx0
2015-11-24 11:18:26xx0
2015-11-24 11:20:06xx0
2015-11-24 11:21:46xx0
2015-11-24 11:23:26xx0
2015-11-24 11:25:06xx0
2015-11-24 11:26:46xx0
2015-11-24 11:28:26xx0
2015-11-24 11:30:06xx0
2015-11-24 11:31:46xx0
2015-11-24 11:33:26xx0
2015-11-24 11:35:06xx0
2015-11-24 11:36:46xx0
2015-11-24 11:38:26xx0
2015-11-24 11:40:06xx0
2015-11-24 11:41:46xx0
2015-11-24 11:43:26xx0
2015-11-24 11:45:06xx0
2015-11-24 11:46:46xx0
2015-11-24 11:48:26xx0
2015-11-24 11:50:06xx0
2015-11-24 11:51:46xx0
2015-11-24 11:53:26xx0
2015-11-24 11:55:06xx0
2015-11-24 11:56:46xx0
2015-11-24 11:58:26xx0
2015-11-24 12:00:06xx0
2015-11-24 12:01:46xx0
2015-11-24 12:03:26xx0
2015-11-24 12:05:06xx0
2015-11-24 12:06:46xx0
2015-11-24 12:08:26xx0
2015-11-24 12:10:06xx0
2015-11-24 12:11:46xx0
2015-11-24 12:13:26xx0
2015-11-24 12:15:06xx0
2015-11-24 12:16:46xx0
2015-11-24 12:18:26xx0
2015-11-24 12:20:06xx0
2015-11-24 12:21:46xx0
2015-11-24 12:23:26xx0
2015-11-24 12:25:06xx0
2015-11-24 12:26:46xx0
2015-11-24 12:28:26xx0
2015-11-24 12:30:06xx0
2015-11-24 12:31:46xx0
2015-11-24 12:33:26xx0
2015-11-24 12:35:06xx0
2015-11-24 12:36:46xx0
2015-11-24 12:38:26xx0
2015-11-24 12:40:06xx0
2015-11-24 12:41:46xx0
2015-11-24 12:43:26xx0
2015-11-24 12:45:06xx0
2015-11-24 12:46:46xx0
2015-11-24 12:48:26xx0
2015-11-24 12:50:06xx0
2015-11-24 12:51:46xx0
2015-11-24 12:53:26xx0
2015-11-24 12:55:06xx0
2015-11-24 12:56:46xx0
2015-11-24 12:58:26xx0
2015-11-24 13:00:06xx0
2015-11-24 13:01:46xx0
2015-11-24 13:03:26xx0
2015-11-24 13:05:06xx0
2015-11-24 13:06:46xx0
2015-11-24 13:08:26xx0
2015-11-24 13:10:06xx0
2015-11-24 13:11:46xx0
2015-11-24 13:13:26xx0
2015-11-24 13:15:06xx0
2015-11-24 13:16:46xx0
2015-11-24 13:18:26xx0
2015-11-24 13:20:06xx0
2015-11-24 13:21:46xx0
2015-11-24 13:23:26xx0
2015-11-24 13:25:06xx0
2015-11-24 13:26:46xx0
2015-11-24 13:28:26xx0
2015-11-24 13:30:06xx0
2015-11-24 13:31:46xx0
2015-11-24 13:33:26xx0
2015-11-24 13:35:06xx0
2015-11-24 13:36:46xx0
2015-11-24 13:38:26xx0
2015-11-24 13:40:06xx0
2015-11-24 13:41:46xx0
2015-11-24 13:43:26xx0
2015-11-24 13:45:06xx0
2015-11-24 13:46:46xx0
2015-11-24 13:48:26xx0
2015-11-24 13:50:06xx0
2015-11-24 13:51:46xx0
2015-11-24 13:53:26xx0
2015-11-24 13:55:06xx0
2015-11-24 13:56:46xx0
2015-11-24 13:58:26xx0
2015-11-24 14:00:06xx0
2015-11-24 14:01:46xx0
2015-11-24 14:03:26xx0
2015-11-24 14:05:06xx0
2015-11-24 14:06:46xx0
2015-11-24 14:08:26xx0
2015-11-24 14:10:06xx0
2015-11-24 14:11:46xx0
2015-11-24 14:13:26xx0
2015-11-24 14:15:06xx0
2015-11-24 14:16:46xx0
2015-11-24 14:18:26xx0
2015-11-24 14:20:06xx0
2015-11-24 14:21:46xx0
2015-11-24 14:23:26xx0
2015-11-24 14:25:06xx0
2015-11-24 14:26:46xx0
2015-11-24 14:28:26xx0
2015-11-24 14:30:06xx0
2015-11-24 14:31:46xx0
2015-11-24 14:33:26xx0
2015-11-24 14:35:06xx0
2015-11-24 14:36:46xx0
2015-11-24 14:38:26xx0
2015-11-24 14:40:06xx0
2015-11-24 14:41:46xx0
2015-11-24 14:43:26xx0
2015-11-24 14:45:06xx0
2015-11-24 14:46:46xx0
2015-11-24 14:48:26xx0
2015-11-24 14:50:06xx0
2015-11-24 14:51:46xx0
2015-11-24 14:53:26xx0
2015-11-24 14:55:06xx0
2015-11-24 14:56:46xx0
2015-11-24 14:58:26xx0
2015-11-24 15:00:06xx0
2015-11-24 15:01:46xx0
2015-11-24 15:03:26xx0
2015-11-24 15:05:06xx0
2015-11-24 15:06:46xx0
2015-11-24 15:08:26xx0
2015-11-24 15:10:06xx0
2015-11-24 15:11:46xx0
2015-11-24 15:13:26xx0
2015-11-24 15:15:06xx0
2015-11-24 15:16:46xx0
2015-11-24 15:18:26xx0
2015-11-24 15:20:06xx0
2015-11-24 15:21:46xx0
2015-11-24 15:23:26xx0
2015-11-24 15:25:06xx0
2015-11-24 15:26:46xx0
2015-11-24 15:28:26xx0
2015-11-24 15:30:06xx0
2015-11-24 15:31:46xx0
2015-11-24 15:33:26xx0
2015-11-24 15:35:06xx0
2015-11-24 15:36:46xx0
2015-11-24 15:38:26xx0
2015-11-24 15:40:06xx0
2015-11-24 15:41:46xx0
2015-11-24 15:43:26xx0
2015-11-24 15:45:06xx0
2015-11-24 15:46:46xx0
2015-11-24 15:48:26xx0
2015-11-24 15:50:06xx0
2015-11-24 15:51:46xx-1
2015-11-24 15:53:26xx0
2015-11-24 15:55:06xx1
2015-11-24 15:56:46xx0
2015-11-24 15:58:26xx0
2015-11-24 16:00:06xx0
2015-11-24 16:01:46xx0
2015-11-24 16:03:26xx0
2015-11-24 16:05:06xx0
2015-11-24 16:06:46xx0
2015-11-24 16:08:26xx0
2015-11-24 16:10:06xx0
2015-11-24 16:11:46xx-1
2015-11-24 16:13:26xx0
2015-11-24 16:15:06xx0
2015-11-24 16:16:46xx0
2015-11-24 16:18:26xx0
2015-11-24 16:20:06xx0
2015-11-24 16:21:46xx0
2015-11-24 16:23:26xx0
2015-11-24 16:25:06xx0
2015-11-24 16:26:46xx0
2015-11-24 16:28:26xx0
2015-11-24 16:30:06xx0
2015-11-24 16:31:46xx0
2015-11-24 16:33:26xx0
2015-11-24 16:35:06xx0
2015-11-24 16:36:46xx0
2015-11-24 16:38:26xx0
2015-11-24 16:40:06xx0
2015-11-24 16:41:46xx0
2015-11-24 16:43:26xx0
2015-11-24 16:45:06xx1
2015-11-24 16:46:46xx0
2015-11-24 16:48:26xx-1
2015-11-24 16:50:06xx1
2015-11-24 16:51:46xx0
2015-11-24 16:53:26xx0
2015-11-24 16:55:06xx0
2015-11-24 16:56:46xx-1
2015-11-24 16:58:26xx0
2015-11-24 17:00:06xx0
2015-11-24 17:01:46xx0
2015-11-24 17:03:26xx0
2015-11-24 17:05:06xx0
2015-11-24 17:06:46xx0
2015-11-24 17:08:26xx0
2015-11-24 17:10:06xx0
2015-11-24 17:11:46xx0
2015-11-24 17:13:26xx0
2015-11-24 17:15:06xx0
2015-11-24 17:16:46xx-1
2015-11-24 17:18:26xx0
2015-11-24 17:20:06xx0
2015-11-24 17:21:46xx0
2015-11-24 17:23:26xx0
2015-11-24 17:25:06xx0
2015-11-24 17:26:46xx0
2015-11-24 17:28:26xx0
2015-11-24 17:30:06xx0
2015-11-24 17:31:46xx0
2015-11-24 17:33:26xx0
2015-11-24 17:35:06xx0
2015-11-24 17:36:46xx0
2015-11-24 17:38:26xx0
2015-11-24 17:40:06xx0
2015-11-24 17:41:46xx0
2015-11-24 17:43:26xx0
2015-11-24 17:45:06xx0
2015-11-24 17:46:46xx0
2015-11-24 17:48:26xx0
2015-11-24 17:50:06xx0
2015-11-24 17:51:46xx0
2015-11-24 17:53:26xx0
2015-11-24 17:55:06xx0
2015-11-24 17:56:46xx0
2015-11-24 17:58:26xx0
2015-11-24 18:00:06xx0
2015-11-24 18:01:46xx0
2015-11-24 18:03:26xx0
2015-11-24 18:05:06xx0
2015-11-24 18:06:46xx0
2015-11-24 18:08:26xx0
2015-11-24 18:10:06xx0
2015-11-24 18:11:46xx0
2015-11-24 18:13:26xx0
2015-11-24 18:15:06xx0
2015-11-24 18:16:46xx0
2015-11-24 18:18:26xx0
2015-11-24 18:20:06xx0
2015-11-24 18:21:46xx0
2015-11-24 18:23:26xx0
2015-11-24 18:25:06xx0
2015-11-24 18:26:46xx0
2015-11-24 18:28:26xx0
2015-11-24 18:30:06xx0
2015-11-24 18:31:46xx0
2015-11-24 18:33:26xx0
2015-11-24 18:35:06xx0
2015-11-24 18:36:46xx0
2015-11-24 18:38:26xx0
2015-11-24 18:40:06xx0
2015-11-24 18:41:46xx0
2015-11-24 18:43:26xx0
2015-11-24 18:45:06xx0
2015-11-24 18:46:46xx0
2015-11-24 18:48:26xx0
2015-11-24 18:50:06xx0
2015-11-24 18:51:46xx0
2015-11-24 18:53:26xx0
2015-11-24 18:55:06xx0
2015-11-24 18:56:46xx0
2015-11-24 18:58:26xx0
2015-11-24 19:00:06xx0
2015-11-24 19:01:46xx0
2015-11-24 19:03:26xx0
2015-11-24 19:05:06xx2
2015-11-24 19:06:46xx0
2015-11-24 19:08:26xx0
2015-11-24 19:10:06xx0
2015-11-24 19:11:46xx0
2015-11-24 19:13:26xx0
2015-11-24 19:15:06xx0
2015-11-24 19:16:46xx0
2015-11-24 19:18:26xx0
2015-11-24 19:20:06xx0
2015-11-24 19:21:46xx0
2015-11-24 19:23:26xx0
2015-11-24 19:25:06xx0
2015-11-24 19:26:46xx0
2015-11-24 19:28:26xx0
2015-11-24 19:30:06xx0
2015-11-24 19:31:46xx0
2015-11-24 19:33:26xx0
2015-11-24 19:35:06xx0
2015-11-24 19:36:46xx0
2015-11-24 19:38:26xx0
2015-11-24 19:40:06xx0
2015-11-24 19:41:46xx0
2015-11-24 19:43:26xx0
2015-11-24 19:45:06xx0
2015-11-24 19:46:46xx0
2015-11-24 19:48:26xx0
2015-11-24 19:50:06xx0
2015-11-24 19:51:46xx0
2015-11-24 19:53:26xx0
2015-11-24 19:55:06xx0
2015-11-24 19:56:46xx0
2015-11-24 19:58:26xx0
2015-11-24 20:00:06xx0
2015-11-24 20:01:46xx0
2015-11-24 20:03:26xx0
2015-11-24 20:05:06xx0
2015-11-24 20:06:46xx0
2015-11-24 20:08:26xx0
2015-11-24 20:10:06xx0
2015-11-24 20:11:46xx0
2015-11-24 20:13:26xx0
2015-11-24 20:15:06xx0
2015-11-24 20:16:46xx0
2015-11-24 20:18:26xx0
2015-11-24 20:20:06xx0
2015-11-24 20:21:46xx0
2015-11-24 20:23:26xx0
2015-11-24 20:25:06xx0
2015-11-24 20:26:46xx0
2015-11-24 20:28:26xx0
2015-11-24 20:30:06xx0
2015-11-24 20:31:46xx0
2015-11-24 20:33:26xx0
2015-11-24 20:35:06xx0
2015-11-24 20:36:46xx0
2015-11-24 20:38:26xx0
2015-11-24 20:40:06xx0
2015-11-24 20:41:46xx0
2015-11-24 20:43:26xx0
2015-11-24 20:45:06xx0
2015-11-24 20:46:46xx0
2015-11-24 20:48:26xx0
2015-11-24 20:50:06xx0
2015-11-24 20:51:46xx0
2015-11-24 20:53:26xx0
2015-11-24 20:55:06xx0
2015-11-24 20:56:46xx0
2015-11-24 20:58:26xx0
2015-11-24 21:00:06xx0
2015-11-24 21:01:46xx0
2015-11-24 21:03:26xx0
2015-11-24 21:05:06xx0
2015-11-24 21:06:46xx0
2015-11-24 21:08:26xx0
2015-11-24 21:10:06xx0
2015-11-24 21:11:46xx0
2015-11-24 21:13:26xx0
2015-11-24 21:15:06xx0
2015-11-24 21:16:46xx0
2015-11-24 21:18:26xx0
2015-11-24 21:20:06xx0
2015-11-24 21:21:46xx0
2015-11-24 21:23:26xx0
2015-11-24 21:25:06xx0
2015-11-24 21:26:46xx0
2015-11-24 21:28:26xx0
2015-11-24 21:30:06xx0
2015-11-24 21:31:46xx0
2015-11-24 21:33:26xx0
2015-11-24 21:35:06xx0
2015-11-24 21:36:46xx0
2015-11-24 21:38:26xx0
2015-11-24 21:40:06xx0
2015-11-24 21:41:46xx0
2015-11-24 21:43:26xx0
2015-11-24 21:45:06xx0
2015-11-24 21:46:46xx0
2015-11-24 21:48:26xx0
2015-11-24 21:50:06xx0
2015-11-24 21:51:46xx0
2015-11-24 21:53:26xx0
2015-11-24 21:55:06xx0
2015-11-24 21:56:46xx0
2015-11-24 21:58:26xx0
2015-11-24 22:00:06xx0
2015-11-24 22:01:46xx0
2015-11-24 22:03:26xx0
2015-11-24 22:05:06xx0
2015-11-24 22:06:46xx0
2015-11-24 22:08:26xx0
2015-11-24 22:10:06xx0
2015-11-24 22:11:46xx0
2015-11-24 22:13:26xx0
2015-11-24 22:15:06xx0
2015-11-24 22:16:46xx0
2015-11-24 22:18:26xx0
2015-11-24 22:20:06xx0
2015-11-24 22:21:46xx0
2015-11-24 22:23:26xx0
2015-11-24 22:25:06xx0
2015-11-24 22:26:46xx0
2015-11-24 22:28:26xx0
2015-11-24 22:30:06xx0
2015-11-24 22:31:46xx0
2015-11-24 22:33:26xx0
2015-11-24 22:35:06xx0
2015-11-24 22:36:46xx0
2015-11-24 22:38:26xx0
2015-11-24 22:40:06xx0
2015-11-24 22:41:46xx0
2015-11-24 22:43:26xx0
2015-11-24 22:45:06xx0
2015-11-24 22:46:46xx0
2015-11-24 22:48:26xx0
2015-11-24 22:50:06xx0
2015-11-24 22:51:46xx0
2015-11-24 22:53:26xx0
2015-11-24 22:55:06xx0
2015-11-24 22:56:46xx0
2015-11-24 22:58:26xx0
2015-11-24 23:00:06xx0
2015-11-24 23:01:46xx0
2015-11-24 23:03:26xx0
2015-11-24 23:05:06xx0
2015-11-24 23:06:46xx0
2015-11-24 23:08:26xx0
2015-11-24 23:10:06xx0
2015-11-24 23:11:46xx0
2015-11-24 23:13:26xx0
2015-11-24 23:15:06xx0
2015-11-24 23:16:46xx0
2015-11-24 23:18:26xx0
2015-11-24 23:20:06xx0
2015-11-24 23:21:46xx0
2015-11-24 23:23:26xx0
2015-11-24 23:25:06xx0
2015-11-24 23:26:46xx0
2015-11-24 23:28:26xx0
2015-11-24 23:30:06xx0
2015-11-24 23:31:46xx0
2015-11-24 23:33:26xx0
2015-11-24 23:35:06xx0
2015-11-24 23:36:46xx0
2015-11-24 23:38:26xx0
2015-11-24 23:40:06xx0
2015-11-24 23:41:46xx0
2015-11-24 23:43:26xx0
2015-11-24 23:45:06xx0
2015-11-24 23:46:46xx0
2015-11-24 23:48:26xx0
2015-11-24 23:50:06xx0
2015-11-24 23:51:46xx0
2015-11-24 23:53:26xx0
2015-11-24 23:55:06xx0
2015-11-24 23:56:46xx0
2015-11-24 23:58:26xx0
2015-11-25 00:00:06xx0
2015-11-25 00:01:46xx0
2015-11-25 00:03:26xx0
2015-11-25 00:05:06xx0
2015-11-25 00:06:46xx0
2015-11-25 00:08:26xx0
2015-11-25 00:10:06xx0
2015-11-25 00:11:46xx0
2015-11-25 00:13:26xx0
2015-11-25 00:15:06xx0
2015-11-25 00:16:46xx0
2015-11-25 00:18:26xx0
2015-11-25 00:20:06xx0
2015-11-25 00:21:46xx0
2015-11-25 00:23:26xx0
2015-11-25 00:25:06xx0
2015-11-25 00:26:46xx0
2015-11-25 00:28:26xx0
2015-11-25 00:30:06xx0
2015-11-25 00:31:46xx0
2015-11-25 00:33:26xx0
2015-11-25 00:35:06xx0
2015-11-25 00:36:46xx0
2015-11-25 00:38:26xx0
2015-11-25 00:40:06xx0
2015-11-25 00:41:46xx0
2015-11-25 00:43:26xx0
2015-11-25 00:45:06xx0
2015-11-25 00:46:46xx0
2015-11-25 00:48:26xx0
2015-11-25 00:50:06xx0
2015-11-25 00:51:46xx0
2015-11-25 00:53:26xx0
2015-11-25 00:55:06xx0
2015-11-25 00:56:46xx0
2015-11-25 00:58:26xx0
2015-11-25 01:00:06xx0
2015-11-25 01:01:46xx0
2015-11-25 01:03:26xx0
2015-11-25 01:05:06xx0
2015-11-25 01:06:46xx0
2015-11-25 01:08:26xx0
2015-11-25 01:10:06xx0
2015-11-25 01:11:46xx0
2015-11-25 01:13:26xx0
2015-11-25 01:15:06xx0
2015-11-25 01:16:46xx0
2015-11-25 01:18:26xx0
2015-11-25 01:20:06xx0
2015-11-25 01:21:46xx0
2015-11-25 01:23:26xx0
2015-11-25 01:25:06xx0
2015-11-25 01:26:46xx0
2015-11-25 01:28:26xx0
2015-11-25 01:30:06xx0
2015-11-25 01:31:46xx0
2015-11-25 01:33:26xx0
2015-11-25 01:35:06xx0
2015-11-25 01:36:46xx0
2015-11-25 01:38:26xx0
2015-11-25 01:40:06xx0
2015-11-25 01:41:46xx0
2015-11-25 01:43:26xx0
2015-11-25 01:45:06xx0
2015-11-25 01:46:46xx0
2015-11-25 01:48:26xx0
2015-11-25 01:50:06xx0
2015-11-25 01:51:46xx0
2015-11-25 01:53:26xx0
2015-11-25 01:55:06xx0
2015-11-25 01:56:46xx0
2015-11-25 01:58:26xx0
2015-11-25 02:00:06xx0
2015-11-25 02:01:46xx0
2015-11-25 02:03:26xx0
2015-11-25 02:05:06xx0
2015-11-25 02:06:46xx0
2015-11-25 02:08:26xx0
2015-11-25 02:10:06xx0
2015-11-25 02:11:46xx0
2015-11-25 02:13:26xx0
2015-11-25 02:15:06xx0
2015-11-25 02:16:46xx0
2015-11-25 02:18:26xx0
2015-11-25 02:20:06xx0
2015-11-25 02:21:46xx0
2015-11-25 02:23:26xx0
2015-11-25 02:25:06xx0
2015-11-25 02:26:46xx0
2015-11-25 02:28:26xx0
2015-11-25 02:30:06xx0
2015-11-25 02:31:46xx0
2015-11-25 02:33:26xx0
2015-11-25 02:35:06xx0
2015-11-25 02:36:46xx0
2015-11-25 02:38:26xx0
2015-11-25 02:40:06xx0
2015-11-25 02:41:46xx0
2015-11-25 02:43:26xx0
2015-11-25 02:45:06xx0
2015-11-25 02:46:46xx0
2015-11-25 02:48:26xx0
2015-11-25 02:50:06xx0
2015-11-25 02:51:46xx2
2015-11-25 02:53:26xx0
2015-11-25 02:55:06xx0
2015-11-25 02:56:46xx0
2015-11-25 02:58:26xx0
2015-11-25 03:00:06xx0
2015-11-25 03:01:46xx0
2015-11-25 03:03:26xx0
2015-11-25 03:05:06xx0
2015-11-25 03:06:46xx0
2015-11-25 03:08:26xx0
2015-11-25 03:10:06xx0
2015-11-25 03:11:46xx0
2015-11-25 03:13:26xx0
2015-11-25 03:15:06xx0
2015-11-25 03:16:46xx0
2015-11-25 03:18:26xx0
2015-11-25 03:20:06xx0
2015-11-25 03:21:46xx0
2015-11-25 03:23:26xx0
2015-11-25 03:25:06xx0
2015-11-25 03:26:46xx0
2015-11-25 03:28:26xx0
2015-11-25 03:30:06xx0
2015-11-25 03:31:46xx0
2015-11-25 03:33:26xx0
2015-11-25 03:35:06xx0
2015-11-25 03:36:46xx0
2015-11-25 03:38:26xx0
2015-11-25 03:40:06xx0
2015-11-25 03:41:46xx0
2015-11-25 03:43:26xx0
2015-11-25 03:45:06xx0
2015-11-25 03:46:46xx0
2015-11-25 03:48:26xx0
2015-11-25 03:50:06xx0
2015-11-25 03:51:46xx0
2015-11-25 03:53:26xx0
2015-11-25 03:55:06xx0
2015-11-25 03:56:46xx0
2015-11-25 03:58:26xx0
2015-11-25 04:00:06xx0
2015-11-25 04:01:46xx0
2015-11-25 04:03:26xx0
2015-11-25 04:05:06xx0
2015-11-25 04:06:46xx0
2015-11-25 04:08:26xx0
2015-11-25 04:10:06xx0
2015-11-25 04:11:46xx0
2015-11-25 04:13:26xx0
2015-11-25 04:15:06xx0
2015-11-25 04:16:46xx0
2015-11-25 04:18:26xx0
2015-11-25 04:20:06xx0
2015-11-25 04:21:46xx0
2015-11-25 04:23:26xx0
2015-11-25 04:25:06xx0
2015-11-25 04:26:46xx0
2015-11-25 04:28:26xx2
2015-11-25 04:30:06xx0
2015-11-25 04:31:46xx0
2015-11-25 04:33:26xx0
2015-11-25 04:35:06xx0
2015-11-25 04:36:46xx0
2015-11-25 04:38:26xx0
2015-11-25 04:40:06xx0
2015-11-25 04:41:46xx0
2015-11-25 04:43:26xx0
2015-11-25 04:45:06xx0
2015-11-25 04:46:46xx0
2015-11-25 04:48:26xx0
2015-11-25 04:50:06xx0
2015-11-25 04:51:46xx0
2015-11-25 04:53:26xx0
2015-11-25 04:55:06xx0
2015-11-25 04:56:46xx0
2015-11-25 04:58:26xx0
2015-11-25 05:00:06xx0
2015-11-25 05:01:46xx0
2015-11-25 05:03:26xx0
2015-11-25 05:05:06xx0
2015-11-25 05:06:46xx0
2015-11-25 05:08:26xx2
2015-11-25 05:10:06xx0
2015-11-25 05:11:46xx0
2015-11-25 05:13:26xx0
2015-11-25 05:15:06xx0
2015-11-25 05:16:46xx0
2015-11-25 05:18:26xx0
2015-11-25 05:20:06xx0
2015-11-25 05:21:46xx0
2015-11-25 05:23:26xx0
2015-11-25 05:25:06xx0
2015-11-25 05:26:46xx0
2015-11-25 05:28:26xx0
2015-11-25 05:30:06xx0
2015-11-25 05:31:46xx0
2015-11-25 05:33:26xx0
2015-11-25 05:35:06xx0
2015-11-25 05:36:46xx0
2015-11-25 05:38:26xx0
2015-11-25 05:40:06xx0
2015-11-25 05:41:46xx0
2015-11-25 05:43:26xx0
2015-11-25 05:45:06xx0
2015-11-25 05:46:46xx0
2015-11-25 05:48:26xx0
2015-11-25 05:50:06xx0
2015-11-25 05:51:46xx0
2015-11-25 05:53:26xx0
2015-11-25 05:55:06xx0
2015-11-25 05:56:46xx0
2015-11-25 05:58:26xx0
2015-11-25 06:00:06xx0
2015-11-25 06:01:46xx0
2015-11-25 06:03:26xx0
2015-11-25 06:05:06xx0
2015-11-25 06:06:46xx0
2015-11-25 06:08:26xx0
2015-11-25 06:10:06xx0
2015-11-25 06:11:46xx0
2015-11-25 06:13:26xx0
2015-11-25 06:15:06xx0
2015-11-25 06:16:46xx0
2015-11-25 06:18:26xx0
2015-11-25 06:20:06xx0
2015-11-25 06:21:46xx0
2015-11-25 06:23:26xx0
2015-11-25 06:25:06xx0
2015-11-25 06:26:46xx0
2015-11-25 06:28:26xx0
2015-11-25 06:30:06xx0
2015-11-25 06:31:46xx0
2015-11-25 06:33:26xx0
2015-11-25 06:35:06xx0
2015-11-25 06:36:46xx0
2015-11-25 06:38:26xx0
2015-11-25 06:40:06xx0
2015-11-25 06:41:46xx0
2015-11-25 06:43:26xx0
2015-11-25 06:45:06xx0
2015-11-25 06:46:46xx0
2015-11-25 06:48:26xx0
2015-11-25 06:50:06xx0
2015-11-25 06:51:46xx0
2015-11-25 06:53:26xx0
2015-11-25 06:55:06xx0
2015-11-25 06:56:46xx0
2015-11-25 06:58:26xx0
2015-11-25 07:00:06xx0
2015-11-25 07:01:46xx0
2015-11-25 07:03:26xx0
2015-11-25 07:05:06xx0
2015-11-25 07:06:46xx0
2015-11-25 07:08:26xx0
2015-11-25 07:10:06xx0
2015-11-25 07:11:46xx0
2015-11-25 07:13:26xx0
2015-11-25 07:15:06xx0
2015-11-25 07:16:46xx0
2015-11-25 07:18:26xx0
2015-11-25 07:20:06xx0
2015-11-25 07:21:46xx0
2015-11-25 07:23:26xx0
2015-11-25 07:25:06xx0
2015-11-25 07:26:46xx0
2015-11-25 07:28:26xx0
2015-11-25 07:30:06xx0
2015-11-25 07:31:46xx0
2015-11-25 07:33:26xx0
2015-11-25 07:35:06xx0
2015-11-25 07:36:46xx0
2015-11-25 07:38:26xx0
2015-11-25 07:40:06xx0
2015-11-25 07:41:46xx0
2015-11-25 07:43:26xx0
2015-11-25 07:45:06xx0
2015-11-25 07:46:46xx0
2015-11-25 07:48:26xx0
2015-11-25 07:50:06xx0
2015-11-25 07:51:46xx0
2015-11-25 07:53:26xx0
2015-11-25 07:55:06xx0
2015-11-25 07:56:46xx0
2015-11-25 07:58:26xx0
2015-11-25 08:00:06xx0
2015-11-25 08:01:46xx0
2015-11-25 08:03:26xx0
2015-11-25 08:05:06xx0
2015-11-25 08:06:46xx0
2015-11-25 08:08:26xx0
2015-11-25 08:10:06xx0
2015-11-25 08:11:46xx0
2015-11-25 08:13:26xx0
2015-11-25 08:15:06xx0
2015-11-25 08:16:46xx0
2015-11-25 08:18:26xx0
2015-11-25 08:20:06xx0
2015-11-25 08:21:46xx0
2015-11-25 08:23:26xx0
2015-11-25 08:25:06xx0
2015-11-25 08:26:46xx0
2015-11-25 08:28:26xx0
2015-11-25 08:30:06xx0
2015-11-25 08:31:46xx0
2015-11-25 08:33:26xx0
2015-11-25 08:35:06xx0
2015-11-25 08:36:46xx0
2015-11-25 08:38:26xx0
2015-11-25 08:40:06xx0
2015-11-25 08:41:46xx0
2015-11-25 08:43:26xx0
2015-11-25 08:45:06xx0
2015-11-25 08:46:46xx0
2015-11-25 08:48:26xx0
2015-11-25 08:50:06xx0
2015-11-25 08:51:46xx0
2015-11-25 08:53:26xx0
2015-11-25 08:55:06xx-1
2015-11-25 08:56:46xx0
2015-11-25 08:58:26xx0
2015-11-25 09:00:06xx0
2015-11-25 09:01:46xx0
2015-11-25 09:03:26xx0
2015-11-25 09:05:06xx0
2015-11-25 09:06:46xx0
2015-11-25 09:08:26xx0
2015-11-25 09:10:06xx0
2015-11-25 09:11:46xx0
2015-11-25 09:13:26xx0
2015-11-25 09:15:06xx0
2015-11-25 09:16:46xx0
2015-11-25 09:18:26xx0
2015-11-25 09:20:06xx0
2015-11-25 09:21:46xx0
2015-11-25 09:23:26xx0
2015-11-25 09:25:06xx0
2015-11-25 09:26:46xx0
2015-11-25 09:28:26xx0
2015-11-25 09:30:06xx0
2015-11-25 09:31:46xx0
2015-11-25 09:33:26xx0
2015-11-25 09:35:05xx0
2015-11-25 09:36:45xx0
2015-11-25 09:38:25xx0
2015-11-25 09:40:05xx0
2015-11-25 09:41:45xx0
2015-11-25 09:43:25xx0
2015-11-25 09:45:05xx0
2015-11-25 09:46:45xx0
2015-11-25 09:48:25xx0
2015-11-25 09:50:05xx0
2015-11-25 09:51:45xx0
2015-11-25 09:53:25xx0
2015-11-25 09:55:05xx0
2015-11-25 09:56:45xx0
2015-11-25 09:58:25xx0
2015-11-25 10:00:05xx2
2015-11-25 10:01:45xx0
2015-11-25 10:03:25xx0
2015-11-25 10:05:05xx0
2015-11-25 10:06:45xx0
2015-11-25 10:08:25xx0
2015-11-25 10:10:05xx0
2015-11-25 10:11:45xx0
2015-11-25 10:13:25xx0
